<svg width="428" height="216" viewBox="0 0 428 216" fill="none" xmlns="http://www.w3.org/2000/svg">
<path fill-rule="evenodd" clip-rule="evenodd" d="M209.697 0.428589V17.3568H202.183V83.2322H192.312V62.9453H187.114V58.0451L175.743 62.9453H172.957V50.7584L159.351 33.0949L145.746 50.7584V92.202H139.36V100.256H129.936V67.3864H122.126L122.451 53.7484H113.413V49.8423H104.256L102.847 26.2217L101.438 49.8423H99.6768V53.7484H97.3003L98.1711 90.2724H96.4842V74.1588L77.5501 62.9453V83.2322H58.6153V67.3864H46.9273V58.0451L26.9058 72.2216V58.0451L0.0615234 77.0528V215.963H20.0823H26.9058H46.0743H46.9273H58.6153H77.5501H96.4842H100.408H117.394H119.343H128.841H129.936H145.746H156.052H172.957H192.312H202.183H218.912H226.064H242.839H247.387H262.791H271.179H284.728H289.636H296.624H308.519H311.574H323.469H329.888H335.365H356.732H365.584H377.099H388.614H397.479H400.128H412.989H416.413H428V80.5839H418.882L419.521 53.7484H400.128V14.9026H388.614V23.16H377.099V30.7201H365.584V69.697H356.732V51.5751H353.58V49.5765H333.041V51.5751H329.888V89.3625H323.469V40.7979H320.315V38.7994H299.778V40.7979H296.624V68.7636H289.636V51.5751H286.484V49.5765H265.946V51.5751H262.791V58.0451L256.201 65.1634V77.0976H247.387V69.697H242.839V51.5751H226.064V40.8463L218.912 34.7269V17.3568H211.397V0.428589H209.697Z" fill="#5470F2" fill-opacity="0.2"/>
<path fill-rule="evenodd" clip-rule="evenodd" d="M288.033 77.9753V88.813H283.215V130.987H276.886V117.999H273.553V114.862L266.263 117.999H264.476V110.197L255.753 98.8887L247.03 110.197V136.73H242.935V141.886H236.893V120.842H231.886L232.094 112.111H226.299V109.611H220.428L219.524 94.4884L218.621 109.611H217.492V112.111H215.968L216.527 135.494H215.445V125.178L203.305 117.999V130.987H191.165V120.842H183.671V114.862L170.834 123.938V114.862L153.623 127.031V215.963H166.459H170.834H183.124H183.671H191.165H203.305H215.445H217.961H228.852H230.101H236.191H236.893H247.03H253.637H264.476H276.886H283.215H293.941H298.527H309.282H312.198H322.075H327.452H336.139H339.287H343.767H351.394H353.352H360.979H365.095H368.606H382.306H387.982H395.364H402.747H408.431H410.13H418.375H420.571H428V129.292H422.154L422.564 112.111H410.13V87.2418H402.747V92.5283H395.364V97.3683H387.982V122.322H382.306V110.72H380.285V109.44H367.116V110.72H365.095V134.912H360.979V103.82H358.957V102.541H345.789V103.82H343.767V121.724H339.287V110.72H337.265V109.44H324.097V110.72H322.075V114.862L317.849 119.419V127.06H312.198V122.322H309.282V110.72H298.527V103.851L293.941 99.9335V88.813H289.123V77.9753H288.033Z" fill="#5470F2" fill-opacity="0.8"/>
<path fill-rule="evenodd" clip-rule="evenodd" d="M106.621 109.906V118.147H110.289V150.213H115.107V140.338H117.644V137.953L123.195 140.338H124.555V134.406L131.196 125.807L137.837 134.406V154.579H140.955V158.499H145.555V142.5H149.367L149.208 135.861H153.62V133.96H158.09L158.778 122.462L159.465 133.96H160.325V135.861H161.485L161.06 153.64H161.883V145.796L171.125 140.338V150.213H180.368V142.5H186.073V137.953L195.846 144.853V137.953L208.95 147.205V214.823H199.177H195.846H186.49H186.073H180.368H171.125H161.883H159.968H151.676H150.725H146.089H145.555H137.837H132.807H124.555H115.107H110.289H102.123H98.6319H90.4436H88.2234H80.7042H76.6101H69.9965H67.6005H64.1897H58.3832H56.8924H51.0859H47.9525H45.2791H34.8494H30.5282H24.9079H19.2869H14.9598H13.6666H7.38896H5.71755H0.0615381V148.924H4.51243L4.20039 135.861H13.6666V116.952H19.2869V120.971H24.9079V124.651H30.5282V143.624H34.8494V134.803H36.3881V133.83H46.4135V134.803H47.9525V153.197H51.0859V129.557H52.6253V128.584H62.6503V129.557H64.1897V143.17H67.6005V134.803H69.1394V133.83H79.1645V134.803H80.7042V137.953L83.9212 141.418V147.227H88.2234V143.624H90.4436V134.803H98.6319V129.581L102.123 126.602V118.147H105.791V109.906H106.621Z" fill="#5470F2" fill-opacity="0.2"/>
<path fill-rule="evenodd" clip-rule="evenodd" d="M162.13 214.135H122.845C118.209 214.135 114.418 210.305 114.418 205.625V110.527C114.418 105.846 118.209 102.016 122.845 102.016H162.13C166.765 102.016 170.556 105.846 170.556 110.527V205.625C170.556 210.305 166.765 214.135 162.13 214.135Z" fill="white" stroke="#37334A" stroke-width="2.28079" stroke-linecap="round" stroke-linejoin="round"/>
<path fill-rule="evenodd" clip-rule="evenodd" d="M162.13 214.135H122.845C118.209 214.135 114.418 210.305 114.418 205.625V110.527C114.418 105.846 118.209 102.016 122.845 102.016H162.13C166.765 102.016 170.556 105.846 170.556 110.527V205.625C170.556 210.305 166.765 214.135 162.13 214.135Z" stroke="#37334A" stroke-width="2.28079" stroke-linecap="round" stroke-linejoin="round"/>
<path fill-rule="evenodd" clip-rule="evenodd" d="M146.831 205.978C146.831 208.401 144.886 210.365 142.487 210.365C140.087 210.365 138.143 208.401 138.143 205.978C138.143 203.554 140.087 201.591 142.487 201.591C144.886 201.591 146.831 203.554 146.831 205.978Z" stroke="#37334A" stroke-width="2.28079" stroke-linecap="round" stroke-linejoin="round"/>
<path d="M140.01 107.222H148.566" stroke="#37334A" stroke-width="2.28079" stroke-linecap="round" stroke-linejoin="round"/>
<path d="M136.408 107.222H137.507" stroke="#37334A" stroke-width="2.28079" stroke-linecap="round" stroke-linejoin="round"/>
<path fill-rule="evenodd" clip-rule="evenodd" d="M262.841 161.851C262.346 156.897 254.164 158.802 249.826 159.183C237.943 132.704 229.456 134.609 225.872 134.609C222.288 134.609 194.561 134.418 183.244 134.609C171.926 134.799 164.571 155.373 161.741 159.183C161.741 159.183 149.458 155.85 148.915 160.326C148.505 164.517 150.99 165.28 156.461 166.422C148.538 198.808 157.781 200.522 157.781 200.522V210.619C157.781 214.048 161.741 214.135 161.741 214.135H170.229C172.682 214.135 172.682 209.856 172.682 209.856V201.474H238.886V210.619C238.886 215 243.224 214.048 243.224 214.048H250.203C253.787 214.048 254.164 210.238 254.164 210.238V200.522C262.464 192.902 256.427 168.899 255.484 165.851C257.936 165.66 263.127 164.719 262.841 161.851" fill="#00BFCC"/>
<path fill-rule="evenodd" clip-rule="evenodd" d="M170.813 156.512C171.669 154.956 172.785 152.508 172.785 152.508C174.859 148.127 177.226 142.034 184.204 142.034H224.757C228.341 142.034 233.811 141.653 239.092 152.893C241.733 158.037 245.128 163.37 237.772 163.37H177.791C174.208 163.37 166.417 164.627 170.813 156.512" fill="#FDFFFE"/>
<path fill-rule="evenodd" clip-rule="evenodd" d="M172.913 193.029C170.178 193.029 164.614 191.696 161.784 190.172C158.955 188.648 159.898 182.932 160.181 182.218C160.463 181.504 162.161 180.266 163.67 181.028C165.179 181.79 168.6 182.611 172.253 183.409C176.546 184.347 177.345 186.647 177.817 189.209C178.289 191.77 175.648 193.029 172.913 193.029" fill="#FDFFFE"/>
<path fill-rule="evenodd" clip-rule="evenodd" d="M221.899 193.614C215.486 194.186 198.511 193.995 192.853 193.614C187.194 193.233 181.346 194.186 183.233 185.423C192.098 186.375 221.145 186.185 228.313 185.423C229.822 189.423 228.313 193.043 221.899 193.614" fill="#FDFFFE"/>
<path fill-rule="evenodd" clip-rule="evenodd" d="M250.833 190.172C248.004 191.696 242.44 193.029 239.704 193.029C236.97 193.029 234.329 191.77 234.801 189.209C235.273 186.648 236.072 184.347 240.365 183.409C244.018 182.611 247.438 181.79 248.946 181.027C250.456 180.266 252.153 181.504 252.436 182.218C252.719 182.932 253.662 188.648 250.833 190.172" fill="#FDFFFE"/>
<path d="M102.069 214.135H275.875" stroke="#37334A" stroke-width="2.28079" stroke-linecap="round" stroke-linejoin="round"/>
<path d="M279.61 214.135H281.713" stroke="#37334A" stroke-width="2.28079" stroke-linecap="round" stroke-linejoin="round"/>
<path d="M285.967 214.135H311.98C335.293 214.135 341.172 212.736 341.172 205.48C341.172 198.557 335.457 198.223 311.615 198.223C295.613 198.223 288.101 197.728 288.101 190.636C288.101 182.096 302.357 182.93 315.705 183.17" stroke="#37334A" stroke-width="2.28079" stroke-linecap="round" stroke-linejoin="round" stroke-dasharray="6.91 6.91"/>
<path d="M317.836 183.202C318.544 183.21 319.248 183.215 319.944 183.215" stroke="#37334A" stroke-width="2.28079" stroke-linecap="round" stroke-linejoin="round"/>
<path fill-rule="evenodd" clip-rule="evenodd" d="M318.929 152.074C314.95 152.074 311.824 148.979 311.824 145.041C311.824 141.103 314.95 138.008 318.929 138.008C322.908 138.008 326.034 141.103 326.034 145.041C326.034 148.979 322.908 152.074 318.929 152.074ZM318.929 125.349C307.986 125.349 299.034 134.21 299.034 145.041C299.034 159.81 318.929 181.612 318.929 181.612C318.929 181.612 338.824 159.81 338.824 145.041C338.824 134.21 329.872 125.349 318.929 125.349Z" fill="white"/>
<path d="M318.929 181.612L318.087 182.381C318.303 182.617 318.608 182.752 318.929 182.752C319.25 182.752 319.555 182.617 319.771 182.381L318.929 181.612ZM318.929 150.933C315.569 150.933 312.964 148.338 312.964 145.041H310.683C310.683 149.62 314.332 153.214 318.929 153.214V150.933ZM312.964 145.041C312.964 141.744 315.569 139.149 318.929 139.149V136.868C314.332 136.868 310.683 140.462 310.683 145.041H312.964ZM318.929 139.149C322.289 139.149 324.894 141.744 324.894 145.041H327.175C327.175 140.462 323.526 136.868 318.929 136.868V139.149ZM324.894 145.041C324.894 148.338 322.289 150.933 318.929 150.933V153.214C323.526 153.214 327.175 149.62 327.175 145.041H324.894ZM318.929 124.209C307.367 124.209 297.893 133.569 297.893 145.041H300.174C300.174 134.851 308.605 126.489 318.929 126.489V124.209ZM297.893 145.041C297.893 148.966 299.209 153.27 301.104 157.456C303.005 161.657 305.53 165.827 308.039 169.507C310.55 173.191 313.059 176.405 314.939 178.698C315.879 179.845 316.664 180.763 317.214 181.395C317.489 181.711 317.706 181.956 317.855 182.123C317.929 182.206 317.986 182.27 318.025 182.313C318.045 182.335 318.06 182.351 318.07 182.363C318.075 182.368 318.079 182.373 318.082 182.376C318.083 182.377 318.084 182.378 318.085 182.379C318.086 182.38 318.086 182.38 318.086 182.38C318.086 182.38 318.087 182.381 318.929 181.612C319.771 180.843 319.771 180.843 319.771 180.843C319.771 180.843 319.771 180.843 319.771 180.843C319.771 180.842 319.77 180.842 319.769 180.84C319.767 180.838 319.763 180.835 319.759 180.83C319.75 180.82 319.737 180.805 319.718 180.785C319.682 180.745 319.628 180.684 319.556 180.604C319.414 180.444 319.203 180.206 318.934 179.898C318.397 179.28 317.627 178.379 316.702 177.252C314.852 174.995 312.387 171.836 309.924 168.222C307.459 164.606 305.01 160.556 303.181 156.515C301.346 152.46 300.174 148.5 300.174 145.041H297.893ZM318.929 181.612C319.771 182.381 319.772 182.38 319.772 182.38C319.772 182.38 319.772 182.38 319.773 182.379C319.774 182.378 319.775 182.377 319.776 182.376C319.779 182.373 319.783 182.368 319.788 182.363C319.798 182.351 319.813 182.335 319.833 182.313C319.872 182.27 319.929 182.206 320.003 182.123C320.152 181.956 320.369 181.711 320.644 181.395C321.195 180.763 321.979 179.845 322.92 178.698C324.799 176.405 327.308 173.191 329.819 169.507C332.328 165.827 334.853 161.657 336.755 157.456C338.649 153.27 339.965 148.966 339.965 145.041H337.684C337.684 148.5 336.512 152.46 334.677 156.515C332.848 160.556 330.4 164.606 327.934 168.222C325.471 171.836 323.006 174.995 321.156 177.252C320.231 178.379 319.461 179.28 318.924 179.898C318.655 180.206 318.444 180.444 318.302 180.604C318.23 180.684 318.176 180.745 318.14 180.785C318.121 180.805 318.108 180.82 318.099 180.83C318.095 180.835 318.091 180.838 318.089 180.84C318.088 180.842 318.087 180.842 318.087 180.843C318.087 180.843 318.087 180.843 318.087 180.843C318.087 180.843 318.087 180.843 318.929 181.612ZM339.965 145.041C339.965 133.569 330.491 124.209 318.929 124.209V126.489C329.253 126.489 337.684 134.851 337.684 145.041H339.965Z" fill="#37334A"/>
<path d="M318.929 181.612L318.087 182.381C318.303 182.617 318.608 182.752 318.929 182.752C319.25 182.752 319.555 182.617 319.771 182.381L318.929 181.612ZM318.929 150.933C315.569 150.933 312.964 148.338 312.964 145.041H310.683C310.683 149.62 314.332 153.214 318.929 153.214V150.933ZM312.964 145.041C312.964 141.744 315.569 139.149 318.929 139.149V136.868C314.332 136.868 310.683 140.462 310.683 145.041H312.964ZM318.929 139.149C322.289 139.149 324.894 141.744 324.894 145.041H327.175C327.175 140.462 323.526 136.868 318.929 136.868V139.149ZM324.894 145.041C324.894 148.338 322.289 150.933 318.929 150.933V153.214C323.526 153.214 327.175 149.62 327.175 145.041H324.894ZM318.929 124.209C307.367 124.209 297.893 133.569 297.893 145.041H300.174C300.174 134.851 308.605 126.489 318.929 126.489V124.209ZM297.893 145.041C297.893 148.966 299.209 153.27 301.104 157.456C303.005 161.657 305.53 165.827 308.039 169.507C310.55 173.191 313.059 176.405 314.939 178.698C315.879 179.845 316.664 180.763 317.214 181.395C317.489 181.711 317.706 181.956 317.855 182.123C317.929 182.206 317.986 182.27 318.025 182.313C318.045 182.335 318.06 182.351 318.07 182.363C318.075 182.368 318.079 182.373 318.082 182.376C318.083 182.377 318.084 182.378 318.085 182.379C318.086 182.38 318.086 182.38 318.086 182.38C318.086 182.38 318.087 182.381 318.929 181.612C319.771 180.843 319.771 180.843 319.771 180.843C319.771 180.843 319.771 180.843 319.771 180.843C319.771 180.842 319.77 180.842 319.769 180.84C319.767 180.838 319.763 180.835 319.759 180.83C319.75 180.82 319.737 180.805 319.718 180.785C319.682 180.745 319.628 180.684 319.556 180.604C319.414 180.444 319.203 180.206 318.934 179.898C318.397 179.28 317.627 178.379 316.702 177.252C314.852 174.995 312.387 171.836 309.924 168.222C307.459 164.606 305.01 160.556 303.181 156.515C301.346 152.46 300.174 148.5 300.174 145.041H297.893ZM318.929 181.612C319.771 182.381 319.772 182.38 319.772 182.38C319.772 182.38 319.772 182.38 319.773 182.379C319.774 182.378 319.775 182.377 319.776 182.376C319.779 182.373 319.783 182.368 319.788 182.363C319.798 182.351 319.813 182.335 319.833 182.313C319.872 182.27 319.929 182.206 320.003 182.123C320.152 181.956 320.369 181.711 320.644 181.395C321.195 180.763 321.979 179.845 322.92 178.698C324.799 176.405 327.308 173.191 329.819 169.507C332.328 165.827 334.853 161.657 336.755 157.456C338.649 153.27 339.965 148.966 339.965 145.041H337.684C337.684 148.5 336.512 152.46 334.677 156.515C332.848 160.556 330.4 164.606 327.934 168.222C325.471 171.836 323.006 174.995 321.156 177.252C320.231 178.379 319.461 179.28 318.924 179.898C318.655 180.206 318.444 180.444 318.302 180.604C318.23 180.684 318.176 180.745 318.14 180.785C318.121 180.805 318.108 180.82 318.099 180.83C318.095 180.835 318.091 180.838 318.089 180.84C318.088 180.842 318.087 180.842 318.087 180.843C318.087 180.843 318.087 180.843 318.087 180.843C318.087 180.843 318.087 180.843 318.929 181.612ZM339.965 145.041C339.965 133.569 330.491 124.209 318.929 124.209V126.489C329.253 126.489 337.684 134.851 337.684 145.041H339.965Z" fill="#37334A"/>
<path fill-rule="evenodd" clip-rule="evenodd" d="M153.616 142.889C153.616 146.03 152.339 148.876 150.277 150.911C148.268 152.904 145.521 154.129 142.487 154.129C139.458 154.129 136.706 152.904 134.702 150.911C132.635 148.876 131.359 146.03 131.359 142.889C131.359 142.433 131.387 141.984 131.44 141.546C132.097 135.974 136.794 131.649 142.487 131.649C148.187 131.649 152.884 135.974 153.534 141.552C153.587 141.99 153.616 142.433 153.616 142.889Z" stroke="#37334A" stroke-width="2.28079" stroke-linecap="round" stroke-linejoin="round"/>
<path fill-rule="evenodd" clip-rule="evenodd" d="M153.534 141.552C150.471 143.167 146.64 144.125 142.488 144.125C138.334 144.125 134.503 143.167 131.44 141.546C132.096 135.974 136.793 131.65 142.488 131.65C148.187 131.65 152.883 135.974 153.534 141.552Z" stroke="#37334A" stroke-width="2.28079" stroke-linecap="round" stroke-linejoin="round"/>
<path fill-rule="evenodd" clip-rule="evenodd" d="M150.277 150.911C148.268 152.904 145.521 154.129 142.487 154.129C139.458 154.129 136.706 152.904 134.702 150.911C135.259 147.071 138.533 144.126 142.487 144.126C146.44 144.126 149.715 147.071 150.277 150.911Z" stroke="#37334A" stroke-width="2.28079" stroke-linecap="round" stroke-linejoin="round"/>
<path fill-rule="evenodd" clip-rule="evenodd" d="M263.136 161.255C262.645 156.284 254.459 158.197 250.117 158.581C247.153 151.96 244.405 147.11 241.883 143.562C234.302 132.859 228.843 133.94 226.152 133.94C222.562 133.94 194.825 133.748 183.498 133.94C172.173 134.125 164.817 154.755 161.985 158.581C161.985 158.581 149.69 155.239 149.149 159.726C148.742 163.929 151.229 164.69 156.702 165.834C148.776 198.313 158.023 200.034 158.023 200.034V210.153C158.023 213.595 161.985 213.681 161.985 213.681H170.48C172.932 213.681 172.932 209.392 172.932 209.392V200.987H239.171V210.153C239.171 214.547 243.513 213.595 243.513 213.595H250.497C254.08 213.595 254.459 209.776 254.459 209.776V200.034C262.764 192.389 256.722 168.323 255.78 165.266C258.233 165.074 263.424 164.128 263.136 161.255" fill="#5470F2"/>
<path opacity="0.1" fill-rule="evenodd" clip-rule="evenodd" d="M255.788 165.65C256.729 168.684 262.764 192.558 254.468 200.142V209.807C254.468 209.807 254.09 213.596 250.51 213.596H243.535C243.535 213.596 239.198 214.541 239.198 210.181V201.087H185.238L192.909 193.376L193.021 193.263L200.362 185.884L241.907 144.118C244.427 147.639 247.171 152.45 250.131 159.018C254.468 158.637 262.645 156.74 263.136 161.671C263.424 164.521 258.238 165.46 255.788 165.65" fill="#242E42"/>
<path fill-rule="evenodd" clip-rule="evenodd" d="M237.271 163.434H177.668C174.102 163.434 166.363 164.705 170.731 156.491C171.583 154.919 172.692 152.442 172.692 152.442C174.751 148.005 177.103 141.838 184.04 141.838H224.724C226.866 141.831 229.622 141.838 232.581 144.25C234.535 145.837 236.573 148.472 238.583 152.83C241.214 158.035 244.584 163.434 237.271 163.434" fill="#FDFFFE"/>
<path fill-rule="evenodd" clip-rule="evenodd" d="M221.37 141.838L199.917 163.505H185.238L206.692 141.838H221.37Z" fill="#EDEDED"/>
<path fill-rule="evenodd" clip-rule="evenodd" d="M233.79 144.258L214.815 163.505H204.433L225.794 141.838C227.974 141.831 230.779 141.838 233.79 144.258" fill="#EDEDED"/>
<path fill-rule="evenodd" clip-rule="evenodd" d="M172.376 193.155C169.642 193.155 164.08 191.789 161.25 190.227C158.422 188.665 159.365 182.808 159.648 182.076C159.93 181.344 161.627 180.075 163.136 180.856C164.645 181.637 168.065 182.479 171.717 183.296C176.009 184.258 176.808 186.615 177.279 189.24C177.751 191.865 175.111 193.155 172.376 193.155" fill="#FDFFFE"/>
<path fill-rule="evenodd" clip-rule="evenodd" d="M222.274 193.911C215.817 194.521 198.725 194.317 193.029 193.911C187.331 193.504 181.444 194.521 183.343 185.172C192.269 186.188 221.515 185.985 228.731 185.172C230.25 189.44 228.731 193.301 222.274 193.911" fill="#FDFFFE"/>
<path fill-rule="evenodd" clip-rule="evenodd" d="M251.004 190.227C248.175 191.789 242.612 193.155 239.877 193.155C237.143 193.155 234.503 191.865 234.975 189.241C235.446 186.616 236.245 184.258 240.538 183.296C244.19 182.479 247.609 181.637 249.117 180.856C250.627 180.075 252.323 181.344 252.606 182.076C252.889 182.808 253.832 188.665 251.004 190.227" fill="#FDFFFE"/>
</svg>
